usbh_ctlreq.c:545:20:USBH_CtlReq.part.0	32	static
usbh_ctlreq.c:103:20:USBH_Get_DevDesc	16	static
usbh_ctlreq.c:130:20:USBH_Get_CfgDesc	32	static
usbh_ctlreq.c:158:20:USBH_Get_StringDesc	24	static
usbh_ctlreq.c:188:20:USBH_GetDescriptor	24	static
usbh_ctlreq.c:222:20:USBH_SetAddress	16	static
usbh_ctlreq.c:248:20:USBH_SetCfg	16	static
usbh_ctlreq.c:272:20:USBH_SetInterface	16	static
usbh_ctlreq.c:297:20:USBH_SetFeature	16	static
usbh_ctlreq.c:322:20:USBH_ClrFeature	16	static
usbh_ctlreq.c:523:21:USBH_GetNextDesc	0	static
usbh_ctlreq.c:545:20:USBH_CtlReq	32	static
